Final Project
…
library(ggplot2)
by_day <- group_by(fulldata, date)
ridesperday <- summarise(by_day,
                         count = n())

## `summarise()` ungrouping output (override with `.groups` argument)

ridesperday$rides <- ridesperday$count
ridesperday$count <- NULL
ridesperday

## # A tibble: 365 x 2
##    date       rides
##    <date>     <int>
##  1 2019-01-01  1087
##  2 2019-01-02  1911
##  3 2019-01-03  2032
##  4 2019-01-04  2147
##  5 2019-01-05   913
##  6 2019-01-06  1565
##  7 2019-01-07  1841
##  8 2019-01-08  2026
##  9 2019-01-09  2231
## 10 2019-01-10  2053
## #  with 355 more rows
…
